{
  "smtp": {
    "auth": {
      "user": "trybrim@gmail.com",
      "pass": "briM*13_trY"
    },
    "host": "smtp.gmail.com",
    "port": 465,
    "secureConnection": true
  },
  "imap": {
    "user": "trybrim@gmail.com",
    "password": "briM*13_trY",
    "host": "imap.gmail.com",
    "port": 993,
    "tls": true,
    "tlsOptions": { 
      "rejectUnauthorized": false 
    }
  },
  "mandrill-api": ""
}